examples/fgyk.vcd
$date 2024-12-03 19:05:21 $end 
$version Wavy XM_saved $end 
$timescale 1 us $end 
$scope module RPIPico $end
$var wire 1 # GP1 $end
$var wire 1 $ GP2 $end
$var wire 1 % GP3 $end
$var wire 1 & GP4 $end
$var wire 1 ' GP5 $end
$var wire 1 * GP6 $end
$var wire 1 < GP7 $end
$var wire 1 + GP8 $end
$upscope $end
$enddefinitions $end
#0
1'
#1751660
0'
#1756240
1'
#1760720
0'
#1761325
1'
#1762975
0'
#1763580
1'
#1765230
0'
#1765830
1'
#1767480
0'
#1768085
1'
#1768605
0'
#1769210
1'
#1769735
0'
#1770340
1'
#1770860
0'
#1771460
1'
#1771990
0'
#1772590
1'
#1773115
0'
#1773715
1'
#1775365
0'
#1775970
1'
#1777620
0'
#1778220
1'
#1779870
0'
#1780475
1'
#1781000
0'
#1781600
1'
#1782125
0'
#1782730
1'
#1783255
0'
#1783855
1'
#1784380
0'
#1784980
1'
#1785510
0'
#1786110
1'
#1786630
0'
#1787235
1'
#1788885
0'
#1789485
1'
#1790015
0'
#1790615
1'
#1791140
0'
#1791740
1'
#1792270
0'
#1792870
1'
#1793390
0'
#1793995
1'
#1794520
0'
#1795125
1'
#1795645
0'
#1796245
1'
#1797900
0'
#1798500
1'
#1799030
0'
#1799630
1'
#1801280
0'
#1801880
1'
#1803535
0'
#1804135
1'
#1805785
0'
#1806390
1'
#1808040
0'
#1808640
1'
#1810290
0'
#1810895
1'
#1812545
0'
#1813145
1'
#1860185
0'
#1864770
1'
#1869255
0'
#1869860
1'
#1871510
0'
#1872110
1'
#1873760
0'
#1874365
1'
#1876015
0'
#1876615
1'
#1877140
0'
#1877745
1'
#1878270
0'
#1878870
1'
#1879395
0'
#1880000
1'
#1880520
0'
#1881125
1'
#1881645
0'
#1882255
1'
#1883900
0'
#1884505
1'
#1886150
0'
#1886760
1'
#1888405
0'
#1889010
1'
#1889535
0'
#1890135
1'
#1890660
0'
#1891260
1'
#1891785
0'
#1892390
1'
#1892915
0'
#1893520
1'
#1894040
0'
#1894645
1'
#1895165
0'
#1895770
1'
#1897420
0'
#1898020
1'
#1898545
0'
#1899150
1'
#1899675
0'
#1900280
1'
#1900800
0'
#1901400
1'
#1901925
0'
#1902530
1'
#1903055
0'
#1903655
1'
#1904185
0'
#1904785
1'
#1906435
0'
#1907035
1'
#1907560
0'
#1908160
1'
#1909815
0'
#1910415
1'
#1912065
0'
#1912665
1'
#1914320
0'
#1914920
1'
#1916570
0'
#1917175
1'
#1918825
0'
#1919425
1'
#1921080
0'
#1921680
1'
#1968725
0'
#1973285
1'
#1977795
0'
#1978400
1'
#1980050
0'
#1980630
1'
#1982305
0'
#1982905
1'
#1984555
0'
#1985160
1'
#1985680
0'
#1986260
1'
#1986810
0'
#1987385
1'
#1987940
0'
#1988540
1'
#1989065
0'
#1989665
1'
#1990195
0'
#1990795
1'
#1992445
0'
#1993020
1'
#1994700
0'
#1995300
1'
#1996950
0'
#1997530
1'
#1998076
0'
#1998655
1'
#1999203
0'
#1999780
1'
#2000330
0'
#2000930
1'
#2001460
0'
#2002060
1'
#2002585
0'
#2003190
1'
#2003710
0'
#2004290
1'
#2005965
0'
#2006560
1'
#2007095
0'
#2007695
1'
#2008215
0'
#2008795
1'
#2009345
0'
#2009925
1'
#2010470
0'
#2011040
1'
#2011600
0'
#2012200
1'
#2012720
0'
#2013326
1'
#2014975
0'
#2015555
1'
#2016105
0'
#2016685
1'
#2018360
0'
#2018960
1'
#2020610
0'
#2021215
1'
#2022865
0'
#2023440
1'
#2025115
0'
#2025720
1'
#2027371
0'
#2027950
1'
#2029625
0'
#2030225
1'
#2077275
0'
#2081855
1'
#2086340
0'
#2086945
1'
#2088595
0'
#2089195
1'
#2090845
0'
#2091450
1'
#2093100
0'
#2093705
1'
#2094230
0'
#2094830
1'
#2095355
0'
#2095955
1'
#2096485
0'
#2097085
1'
#2097610
0'
#2098210
1'
#2098735
0'
#2099340
1'
#2100990
0'
#2101595
1'
#2103240
0'
#2103845
1'
#2105495
0'
#2106100
1'
#2106620
0'
#2107225
1'
#2107750
0'
#2108350
1'
#2108875
0'
#2109480
1'
#2110005
0'
#2110605
1'
#2111130
0'
#2111731
1'
#2112260
0'
#2112860
1'
#2114510
0'
#2115115
1'
#2115635
0'
#2116240
1'
#2116765
0'
#2117365
1'
#2117890
0'
#2118495
1'
#2119020
0'
#2119620
1'
#2120145
0'
#2120750
1'
#2121275
0'
#2121875
1'
#2123525
0'
#2124130
1'
#2124655
0'
#2125256
1'
#2126905
0'
#2127510
1'
#2129160
0'
#2129765
1'
#2131415
0'
#2132020
1'
#2133665
0'
#2134270
1'
#2135915
0'
#2136520
1'
#2138170
0'
#2138775
1'
#2185825
0'
#2190405
1'
#2194890
0'
#2195495
1'
#2197145
0'
#2197750
1'
#2199400
0'
#2200000
1'
#2201650
0'
#2202255
1'
#2202775
0'
#2203380
1'
#2203905
0'
#2204510
1'
#2205030
0'
#2205635
1'
#2206160
0'
#2206760
1'
#2207285
0'
#2207885
1'
#2209535
0'
#2210140
1'
#2211790
0'
#2212395
1'
#2214045
0'
#2214645
1'
#2215175
0'
#2215775
1'
#2216295
0'
#2216900
1'
#2217425
0'
#2218030
1'
#2218550
0'
#2219155
1'
#2219680
0'
#2220285
1'
#2220805
0'
#2221405
1'
#2223055
0'
#2223660
1'
#2224185
0'
#2224790
1'
#2225310
0'
#2225915
1'
#2226440
0'
#2227045
1'
#2227565
0'
#2228170
1'
#2228695
0'
#2229295
1'
#2229820
0'
#2230420
1'
#2232070
0'
#2232675
1'
#2233200
0'
#2233805
1'
#2235455
0'
#2236060
1'
#2237710
0'
#2238310
1'
#2239960
0'
#2240565
1'
#2242215
0'
#2242820
1'
#2244470
0'
#2245070
1'
#2246720
0'
#2247325
1'
#2294370
0'
#2298950
1'
#2303440
0'
#2304040
1'
#2305690
0'
#2306295
1'
#2307940
0'
#2308545
1'
#2310195
0'
#2310800
1'
#2311325
0'
#2311925
1'
#2312450
0'
#2313050
1'
#2313580
0'
#2314180
1'
#2314705
0'
#2315305
1'
#2315835
0'
#2316435
1'
#2318085
0'
#2318690
1'
#2320335
0'
#2320915
1'
#2322590
0'
#2323195
1'
#2323720
0'
#2324320
1'
#2324845
0'
#2325450
1'
#2325970
0'
#2326575
1'
#2327100
0'
#2327705
1'
#2328225
0'
#2328825
1'
#2329355
0'
#2329955
1'
#2331605
0'
#2332210
1'
#2332730
0'
#2333335
1'
#2333860
0'
#2334440
1'
#2334985
0'
#2335565
1'
#2336115
0'
#2336695
1'
#2337240
0'
#2337820
1'
#2338370
0'
#2338970
1'
#2340620
0'
#2341225
1'
#2341745
0'
#2342350
1'
#2344000
0'
#2344605
1'
#2346255
0'
#2346860
1'
#2348510
0'
#2349115
1'
#2350765
0'
#2351365
1'
#2353015
0'
#2353620
1'
#2355270
0'
#2355875
1'
#2402925
0'
#2407510
1'
#2411990
0'
#2412595
1'
#2414245
0'
#2414850
1'
#2416495
0'
#2417100
1'
#2418750
0'
#2419355
1'
#2419880
0'
#2420485
1'
#2421005
0'
#2421610
1'
#2422135
0'
#2422735
1'
#2423260
0'
#2423865
1'
#2424385
0'
#2424990
1'
#2426640
0'
#2427245
1'
#2428890
0'
#2429495
1'
#2431145
0'
#2431750
1'
#2432275
0'
#2432881
1'
#2433400
0'
#2434005
1'
#2434530
0'
#2435130
1'
#2435655
0'
#2436255
1'
#2436775
0'
#2437385
1'
#2437905
0'
#2438515
1'
#2440160
0'
#2440765
1'
#2441290
0'
#2441890
1'
#2442415
0'
#2443020
1'
#2443540
0'
#2444145
1'
#2444665
0'
#2445275
1'
#2445795
0'
#2446400
1'
#2446926
0'
#2447530
1'
#2449175
0'
#2449780
1'
#2450305
0'
#2450905
1'
#2452555
0'
#2453160
1'
#2454810
0'
#2455415
1'
#2457060
0'
#2457665
1'
#2459315
0'
#2459920
1'
#2461570
0'
#2462175
1'
#2463820
0'
#2464425
1'
#2511480
0'
#2516065
1'
#2520545
0'
#2521150
1'
#2522800
0'
#2523405
1'
#2525055
0'
#2525660
1'
#2527305
0'
#2527910
1'
#2528430
0'
#2529035
1'
#2529560
0'
#2530165
1'
#2530685
0'
#2531285
1'
#2531815
0'
#2532420
1'
#2532940
0'
#2533545
1'
#2535195
0'
#2535800
1'
#2537445
0'
#2538050
1'
#2539700
0'
#2540305
1'
#2540830
0'
#2541435
1'
#2541955
0'
#2542560
1'
#2543085
0'
#2543690
1'
#2544210
0'
#2544810
1'
#2545335
0'
#2545940
1'
#2546460
0'
#2547065
1'
#2548715
0'
#2549320
1'
#2549840
0'
#2550445
1'
#2550970
0'
#2551570
1'
#2552095
0'
#2552700
1'
#2553225
0'
#2553830
1'
#2554350
0'
#2554955
1'
#2555480
0'
#2556080
1'
#2557730
0'
#2558335
1'
#2558860
0'
#2559460
1'
#2561110
0'
#2561715
1'
#2563365
0'
#2563970
1'
#2565620
0'
#2566225
1'
#2567875
0'
#2568475
1'
#2570125
0'
#2570730
1'
#2572380
0'
#2572985
1'
#2620035
0'
#2624615
1'
#2629101
0'
#2629705
1'
#2631350
0'
#2631955
1'
#2633605
0'
#2634210
1'
#2635860
0'
#2636460
1'
#2636990
0'
#2637590
1'
#2638110
0'
#2638720
1'
#2639240
0'
#2639845
1'
#2640365
0'
#2640975
1'
#2641495
0'
#2642095
1'
#2643745
0'
#2644350
1'
#2646000
0'
#2646605
1'
#2648250
0'
#2648855
1'
#2649385
0'
#2649985
1'
#2650505
0'
#2651110
1'
#2651635
0'
#2652240
1'
#2652760
0'
#2653340
1'
#2653890
0'
#2654485
1'
#2655015
0'
#2655615
1'
#2657265
0'
#2657870
1'
#2658395
0'
#2659000
1'
#2659520
0'
#2660100
1'
#2660650
0'
#2661225
1'
#2661775
0'
#2662380
1'
#2662905
0'
#2663505
1'
#2664030
0'
#2664635
1'
#2666280
0'
#2666860
1'
#2667410
0'
#2667985
1'
#2669665
0'
#2670265
1'
#2671915
0'
#2672490
1'
#2674170
0'
#2674770
1'
#2676420
0'
#2677025
1'
#2678675
0'
#2679250
1'
#2680930
0'
#2681530
1'
#2728580
0'
#2733160
1'
#2737645
0'
#2738225
1'
#2739900
0'
#2740500
1'
#2742150
0'
#2742755
1'
#2744405
0'
#2745010
1'
#2745535
0'
#2746135
1'
#2746660
0'
#2747260
1'
#2747790
0'
#2748390
1'
#2748915
0'
#2749515
1'
#2750045
0'
#2750645
1'
#2752295
0'
#2752900
1'
#2754550
0'
#2755125
1'
#2756800
0'
#2757405
1'
#2757930
0'
#2758530
1'
#2759055
0'
#2759655
1'
#2760185
0'
#2760785
1'
#2761310
0'
#2761910
1'
#2762435
0'
#2763040
1'
#2763560
0'
#2764165
1'
#2765815
0'
#2766415
1'
#2766945
0'
#2767545
1'
#2768070
0'
#2768670
1'
#2769196
0'
#2769800
1'
#2770325
0'
#2770925
1'
#2771450
0'
#2772055
1'
#2772575
0'
#2773180
1'
#2774830
0'
#2775430
1'
#2775960
0'
#2776560
1'
#2778210
0'
#2778815
1'
#2780465
0'
#2781065
1'
#2782720
0'
#2783320
1'
#2784975
0'
#2785575
1'
#2787225
0'
#2787830
1'
#2789480
0'
#2790080
1'
#2837130
0'
#2841715
1'
#2846190
0'
#2846800
1'
#2848450
0'
#2849050
1'
#2850700
0'
#2851305
1'
#2852955
0'
#2853560
1'
#2854085
0'
#2854685
1'
#2855210
0'
#2855810
1'
#2856340
0'
#2856940
1'
#2857465
0'
#2858065
1'
#2858590
0'
#2859190
1'
#2860845
0'
#2861445
1'
#2863095
0'
#2863700
1'
#2865350
0'
#2865955
1'
#2866475
0'
#2867080
1'
#2867605
0'
#2868205
1'
#2868730
0'
#2869335
1'
#2869860
0'
#2870460
1'
#2870985
0'
#2871585
1'
#2872110
0'
#2872715
1'
#2874365
0'
#2874965
1'
#2875490
0'
#2876090
1'
#2876620
0'
#2877220
1'
#2877745
0'
#2878345
1'
#2878875
0'
#2879475
1'
#2879995
0'
#2880600
1'
#2881125
0'
#2881730
1'
#2883380
0'
#2883980
1'
#2884505
0'
#2885110
1'
#2886760
0'
#2887360
1'
#2889015
0'
#2889615
1'
#2891265
0'
#2891870
1'
#2893520
0'
#2894125
1'
#2895775
0'
#2896375
1'
#2898025
0'
#2898630
1'
#2945675
0'
#2950255
1'
#2954735
0'
#2955345
1'
#2956995
0'
#2957595
1'
#2959250
0'
#2959850
1'
#2961500
0'
#2962100
1'
#2962630
0'
#2963230
1'
#2963755
0'
#2964360
1'
#2964885
0'
#2965485
1'
#2966010
0'
#2966615
1'
#2967135
0'
#2967740
1'
#2969390
0'
#2969990
1'
#2971640
0'
#2972245
1'
#2973895
0'
#2974495
1'
#2975025
0'
#2975625
1'
#2976150
0'
#2976750
1'
#2977280
0'
#2977880
1'
#2978405
0'
#2979005
1'
#2979530
0'
#2980135
1'
#2980655
0'
#2981255
1'
#2982910
0'
#2983510
1'
#2984040
0'
#2984640
1'
#2985165
0'
#2985765
1'
#2986290
0'
#2986895
1'
#2987415
0'
#2988015
1'
#2988545
0'
#2989145
1'
#2989670
0'
#2990270
1'
#2991920
0'
#2992525
1'
#2993050
0'
#2993650
1'
#2995305
0'
#2995905
1'
#2997555
0'
#2998155
1'
#2999810
0'
#3000410
1'
#3002060
0'
#3002660
1'
#3004315
0'
#3004915
1'
#3006565
0'
#3007170
1'
#3054215
0'
#3058800
1'
#3063285
0'
#3063890
1'
#3065540
0'
#3066145
1'
#3067795
0'
#3068400
1'
#3070050
0'
#3070650
1'
#3071175
0'
#3071775
1'
#3072300
0'
#3072900
1'
#3073425
0'
#3074030
1'
#3074555
0'
#3075160
1'
#3075680
0'
#3076285
1'
#3077935
0'
#3078535
1'
#3080185
0'
#3080790
1'
#3082440
0'
#3083045
1'
#3083570
0'
#3084170
1'
#3084695
0'
#3085295
1'
#3085825
0'
#3086425
1'
#3086950
0'
#3087550
1'
#3088075
0'
#3088680
1'
#3089200
0'
#3089805
1'
#3091455
0'
#3092055
1'
#3092585
0'
#3093185
1'
#3093710
0'
#3094315
1'
#3094835
0'
#3095440
1'
#3095965
0'
#3096570
1'
#3097090
0'
#3097695
1'
#3098220
0'
#3098820
1'
#3100470
0'
#3101075
1'
#3101595
0'
#3102200
1'
#3103850
0'
#3104455
1'
#3106105
0'
#3106705
1'
#3108355
0'
#3108960
1'
#3110610
0'
#3111210
1'
#3112865
0'
#3113465
1'
#3115115
0'
#3115720
1'
#3162770
0'
#3167356
1'
#3171835
0'
#3172440
1'
#3174090
0'
#3174695
1'
#3176340
0'
#3176945
1'
#3178600
0'
#3179200
1'
#3179725
0'
#3180320
1'
#3180855
0'
#3181455
1'
#3181980
0'
#3182580
1'
#3183105
0'
#3183710
1'
#3184230
0'
#3184835
1'
#3186485
0'
#3187085
1'
#3188735
0'
#3189340
1'
#3190990
0'
#3191590
1'
#3192120
0'
#3192720
1'
#3193245
0'
#3193850
1'
#3194370
0'
#3194970
1'
#3195500
0'
#3196105
1'
#3196625
0'
#3197225
1'
#3197755
0'
#3198355
1'
#3200005
0'
#3200610
1'
#3201130
0'
#3201735
1'
#3202255
0'
#3202865
1'
#3203385
0'
#3203985
1'
#3204515
0'
#3205115
1'
#3205640
0'
#3206240
1'
#3206765
0'
#3207370
1'
#3209020
0'
#3209620
1'
#3210145
0'
#3210745
1'
#3212395
0'
#3213000
1'
#3214650
0'
#3215255
1'
#3216905
0'
#3217510
1'
#3219160
0'
#3219760
1'
#3221410
0'
#3222015
1'
#3223665
0'
#3224265
1'
#3271310
0'
#3275890
1'
#3280375
0'
#3280980
1'
#3282630
0'
#3283235
1'
#3284885
0'
#3285485
1'
#3287135
0'
#3287740
1'
#3288260
0'
#3288860
1'
#3289390
0'
#3289990
1'
#3290515
0'
#3291115
1'
#3291640
0'
#3292245
1'
#3292765
0'
#3293370
1'
#3295020
0'
#3295625
1'
#3297270
0'
#3297875
1'
#3299525
0'
#3300130
1'
#3300650
0'
#3301255
1'
#3301780
0'
#3302385
1'
#3302905
0'
#3303505
1'
#3304035
0'
#3304635
1'
#3305160
0'
#3305760
1'
#3306285
0'
#3306885
1'
#3308540
0'
#3309140
1'
#3309665
0'
#3310265
1'
#3310795
0'
#3311395
1'
#3311915
0'
#3312520
1'
#3313040
0'
#3313650
1'
#3314170
0'
#3314775
1'
#3315300
0'
#3315900
1'
#3317550
0'
#3318155
1'
#3318680
0'
#3319280
1'
#3320930
0'
#3321530
1'
#3323185
0'
#3323785
1'
#3325440
0'
#3326040
1'
#3327685
0'
#3328295
1'
#3329945
0'
#3330545
1'
#3332195
0'
#3332800
1'
#3379845
0'
#3384425
1'
#3388910
0'
#3389515
1'
#3391165
0'
#3391765
1'
#3393415
0'
#3394020
1'
#3395670
0'
#3396270
1'
#3396800
0'
#3397400
1'
#3397925
0'
#3398525
1'
#3399055
0'
#3399655
1'
#3400175
0'
#3400780
1'
#3401305
0'
#3401905
1'
#3403560
0'
#3404160
1'
#3405810
0'
#3406410
1'
#3408065
0'
#3408665
1'
#3409195
0'
#3409795
1'
#3410315
0'
#3410920
1'
#3411445
0'
#3412045
1'
#3412570
0'
#3413170
1'
#3413700
0'
#3414300
1'
#3414825
0'
#3415425
1'
#3417075
0'
#3417680
1'
#3418205
0'
#3418805
1'
#3419330
0'
#3419935
1'
#3420460
0'
#3421060
1'
#3421585
0'
#3422185
1'
#3422715
0'
#3423315
1'
#3423840
0'
#3424445
1'
#3426095
0'
#3426695
1'
#3427220
0'
#3427820
1'
#3429470
0'
#3430075
1'
#3431725
0'
#3432325
1'
#3433975
0'
#3434580
1'
#3436235
0'
#3436835
1'
#3438485
0'
#3439090
1'
#3440740
0'
#3441340
1'
#3488390
0'
#3492970
1'
#3497460
0'
#3498060
1'
#3499710
0'
#3500315
1'
#3501965
0'
#3502565
1'
#3504220
0'
#3504820
1'
#3505345
0'
#3505945
1'
#3506475
0'
#3507075
1'
#3507600
0'
#3508200
1'
#3508725
0'
#3509330
1'
#3509850
0'
#3510455
1'
#3512105
0'
#3512705
1'
#3514360
0'
#3514960
1'
#3516610
0'
#3517215
1'
#3517740
0'
#3518345
1'
#3518865
0'
#3519465
1'
#3519995
0'
#3520595
1'
#3521120
0'
#3521720
1'
#3522250
0'
#3522850
1'
#3523375
0'
#3523975
1'
#3525625
0'
#3526230
1'
#3526755
0'
#3527360
1'
#3527880
0'
#3528485
1'
#3529010
0'
#3529610
1'
#3530135
0'
#3530735
1'
#3531260
0'
#3531865
1'
#3532390
0'
#3532990
1'
#3534640
0'
#3535245
1'
#3535770
0'
#3536375
1'
#3538020
0'
#3538625
1'
#3540275
0'
#3540880
1'
#3542525
0'
#3543135
1'
#3544780
0'
#3545385
1'
#3547035
0'
#3547640
1'
#3549290
0'
#3549890
1'
#3596940
0'
#3601520
1'
#3606010
0'
#3606610
1'
#3608260
0'
#3608860
1'
#3610515
0'
#3611115
1'
#3612765
0'
#3613370
1'
#3613890
0'
#3614495
1'
#3615020
0'
#3615625
1'
#3616145
0'
#3616750
1'
#3617275
0'
#3617875
1'
#3618400
0'
#3619000
1'
#3620655
0'
#3621260
1'
#3622910
0'
#3623510
1'
#3625160
0'
#3625765
1'
#3626285
0'
#3626890
1'
#3627415
0'
#3628020
1'
#3628540
0'
#3629145
1'
#3629670
0'
#3630270
1'
#3630795
0'
#3631395
1'
#3631925
0'
#3632525
1'
#3634175
0'
#3634780
1'
#3635300
0'
#3635900
1'
#3636430
0'
#3637030
1'
#3637555
0'
#3638155
1'
#3638685
0'
#3639285
1'
#3639805
0'
#3640410
1'
#3640935
0'
#3641540
1'
#3643185
0'
#3643790
1'
#3644315
0'
#3644915
1'
#3646565
0'
#3647170
1'
#3648820
0'
#3649425
1'
#3651075
0'
#3651680
1'
#3653330
0'
#3653930
1'
#3655580
0'
#3656180
1'
#3657835
0'
#3658435
1'
#3705485
0'
#3710065
1'
#3714550
0'
#3715155
1'
#3716805
0'
#3717405
1'
#3719055
0'
#3719660
1'
#3721310
0'
#3721910
1'
#3722440
0'
#3723040
1'
#3723560
0'
#3724165
1'
#3724690
0'
#3725295
1'
#3725815
0'
#3726420
1'
#3726945
0'
#3727545
1'
#3729195
0'
#3729800
1'
#3731450
0'
#3732050
1'
#3733700
0'
#3734305
1'
#3734830
0'
#3735435
1'
#3735955
0'
#3736555
1'
#3737085
0'
#3737685
1'
#3738210
0'
#3738810
1'
#3739335
0'
#3739940
1'
#3740465
0'
#3741070
1'
#3742720
0'
#3743320
1'
#3743845
0'
#3744445
1'
#3744970
0'
#3745575
1'
#3746095
0'
#3746700
1'
#3747225
0'
#3747825
1'
#3748350
0'
#3748950
1'
#3749480
0'
#3750080
1'
#3751730
0'
#3752330
1'
#3752855
0'
#3753460
1'
#3755110
0'
#3755715
1'
#3757365
0'
#3757965
1'
#3759615
0'
#3760220
1'
#3761870
0'
#3762470
1'
#3764120
0'
#3764725
1'
#3766375
0'
#3766975
1'
#3814025
0'
#3818610
1'
#3823080
0'
#3823625
1'
#3824085
0'
#3824635
1'
#3825095
0'
#3825640
1'
#3826100
0'
#3826650
1'
#3827110
0'
#3827655
1'
#3829125
0'
#3829670
1'
#3830130
0'
#3830680
1'
#3831140
0'
#3831685
1'
#3832145
0'
#3832695
1'
#3833150
0'
#3833700
1'
#3834160
0'
#3834710
1'
#3835165
0'
#3835715
1'
#3836175
0'
#3836725
1'
#3837180
0'
#3837730
1'
#3838190
0'
#3838740
1'
#3839190
0'
#3839745
1'
#3840205
0'
#3840755
1'
#3845240
0'
#3845790
1'
#3846250
0'
#3846800
1'
#3847255
0'
#3847805
1'
#3848265
0'
#3848815
1'
#3849270
0'
#3849820
1'
#3850280
0'
#3850830
1'
#3851285
0'
#3851835
1'
#3852295
0'
#3852845
1'
#3853300
0'
#3853850
1'
#3854310
0'
#3854860
1'
#3855315
0'
#3855865
1'
#3856325
0'
#3856875
1'
#3857330
0'
#3857880
1'
#3859345
0'
#3859895
1'
#3861360
0'
#3861910
1'
#3863375
0'
#3863925
1'
#3865390
0'
#3865940
1'
#3867405
0'
#3867955
1'
#3869415
0'
#3869965
1'
#3871430
0'
#3871980
1'
#3873445
0'
#3873995
1'
#3934625
0'
#3939205
1'
#3943675
0'
#3944225
1'
#3944685
0'
#3945235
1'
#3945690
0'
#3946240
1'
#3946700
0'
#3947245
1'
#3947705
0'
#3948255
1'
#3949720
0'
#3950270
1'
#3950730
0'
#3951280
1'
#3951735
0'
#3952285
1'
#3952745
0'
#3953295
1'
#3953750
0'
#3954300
1'
#3954760
0'
#3955310
1'
#3955765
0'
#3956315
1'
#3956775
0'
#3957325
1'
#3957780
0'
#3958325
1'
#3958790
0'
#3959340
1'
#3959795
0'
#3960345
1'
#3960805
0'
#3961355
1'
#3965835
0'
#3966385
1'
#3966845
0'
#3967395
1'
#3967850
0'
#3968400
1'
#3968860
0'
#3969410
1'
#3969865
0'
#3970415
1'
#3970875
0'
#3971425
1'
#3971880
0'
#3972430
1'
#3972890
0'
#3973440
1'
#3973895
0'
#3974450
1'
#3974905
0'
#3975460
1'
#3975910
0'
#3976465
1'
#3976925
0'
#3977475
1'
#3977930
0'
#3978480
1'
#3979940
0'
#3980490
1'
#3981955
0'
#3982505
1'
#3983970
0'
#3984520
1'
#3985985
0'
#3986535
1'
#3988000
0'
#3988550
1'
#3990015
0'
#3990565
1'
#3992030
0'
#3992580
1'
#3994045
0'
#3994595
1'
#4055230
0'
#4059810
1'
#4064285
0'
#4064835
1'
#4065295
0'
#4065845
1'
#4066300
0'
#4066850
1'
#4067310
0'
#4067860
1'
#4068315
0'
#4068865
1'
#4070335
0'
#4070880
1'
#4071340
0'
#4071890
1'
#4072350
0'
#4072895
1'
#4073355
0'
#4073905
1'
#4074360
0'
#4074910
1'
#4075365
0'
#4075920
1'
#4076380
0'
#4076925
1'
#4077385
0'
#4077935
1'
#4078395
0'
#4078940
1'
#4079400
0'
#4079950
1'
#4080410
0'
#4080955
1'
#4081415
0'
#4081965
1'
#4086450
0'
#4087000
1'
#4087460
0'
#4088010
1'
#4088465
0'
#4089015
1'
#4089475
0'
#4090025
1'
#4090475
0'
#4091030
1'
#4091490
0'
#4092040
1'
#4092500
0'
#4093045
1'
#4093505
0'
#4094055
1'
#4094515
0'
#4095060
1'
#4095520
0'
#4096070
1'
#4096525
0'
#4097075
1'
#4097535
0'
#4098085
1'
#4098545
0'
#4099090
1'
#4100555
0'
#4101105
1'
#4102570
0'
#4103120
1'
#4104585
0'
#4105135
1'
#4106600
0'
#4107150
1'
#4108615
0'
#4109165
1'
#4110630
0'
#4111180
1'
#4112645
0'
#4113195
1'
#4114660
0'
#4115210
1'
#4175835
0'
#4180415
1'
#4184890
0'
#4185436
1'
#4185895
0'
#4186445
1'
#4186905
0'
#4187455
1'
#4187905
0'
#4188455
1'
#4188920
0'
#4189470
1'
#4190935
0'
#4191485
1'
#4191940
0'
#4192490
1'
#4192950
0'
#4193500
1'
#4193955
0'
#4194505
1'
#4194965
0'
#4195515
1'
#4195970
0'
#4196520
1'
#4196980
0'
#4197530
1'
#4197985
0'
#4198535
1'
#4198995
0'
#4199545
1'
#4200000
0'
#4200550
1'
#4201010
0'
#4201560
1'
#4202015
0'
#4202565
1'
#4207055
0'
#4207605
1'
#4208060
0'
#4208610
1'
#4209070
0'
#4209615
1'
#4210075
0'
#4210625
1'
#4211085
0'
#4211635
1'
#4212090
0'
#4212640
1'
#4213100
0'
#4213650
1'
#4214105
0'
#4214655
1'
#4215115
0'
#4215665
1'
#4216120
0'
#4216670
1'
#4217130
0'
#4217680
1'
#4218135
0'
#4218685
1'
#4219145
0'
#4219695
1'
#4221155
0'
#4221710
1'
#4223170
0'
#4223725
1'
#4225185
0'
#4225735
1'
#4227200
0'
#4227750
1'
#4229215
0'
#4229765
1'
#4231230
0'
#4231780
1'
#4233245
0'
#4233795
1'
#4235260
0'
#4235810
1'
#4296435
0'
#4301020
1'
#4305490
0'
#4306040
1'
#4306500
0'
#4307050
1'
#4307505
0'
#4308055
1'
#4308515
0'
#4309065
1'
#4309520
0'
#4310070
1'
#4311535
0'
#4312085
1'
#4312545
0'
#4313090
1'
#4313550
0'
#4314100
1'
#4314560
0'
#4315110
1'
#4315565
0'
#4316115
1'
#4316570
0'
#4317120
1'
#4317580
0'
#4318130
1'
#4318590
0'
#4319135
1'
#4319595
0'
#4320145
1'
#4320605
0'
#4321150
1'
#4321610
0'
#4322160
1'
#4322620
0'
#4323165
1'
#4327655
0'
#4328205
1'
#4328665
0'
#4329210
1'
#4329670
0'
#4330220
1'
#4330675
0'
#4331225
1'
#4331685
0'
#4332235
1'
#4332690
0'
#4333240
1'
#4333700
0'
#4334250
1'
#4334705
0'
#4335255
1'
#4335715
0'
#4336265
1'
#4336720
0'
#4337270
1'
#4337730
0'
#4338280
1'
#4338735
0'
#4339285
1'
#4339745
0'
#4340295
1'
#4341760
0'
#4342310
1'
#4343770
0'
#4344325
1'
#4345785
0'
#4346340
1'
#4347800
0'
#4348350
1'
#4349815
0'
#4350365
1'
#4351830
0'
#4352380
1'
#4353845
0'
#4354395
1'
#4355860
0'
#4356410
1'
#4417030
0'
#4421615
1'
#4426085
0'
#4426635
1'
#4427095
0'
#4427640
1'
#4428100
0'
#4428650
1'
#4429105
0'
#4429655
1'
#4430115
0'
#4430665
1'
#4432130
0'
#4432680
1'
#4433140
0'
#4433690
1'
#4434145
0'
#4434695
1'
#4435155
0'
#4435705
1'
#4436160
0'
#4436710
1'
#4437170
0'
#4437720
1'
#4438175
0'
#4438725
1'
#4439185
0'
#4439735
1'
#4440190
0'
#4440740
1'
#4441195
0'
#4441745
1'
#4442205
0'
#4442755
1'
#4443215
0'
#4443765
1'
#4448250
0'
#4448800
1'
#4449255
0'
#4449805
1'
#4450265
0'
#4450815
1'
#4451270
0'
#4451820
1'
#4452280
0'
#4452830
1'
#4453285
0'
#4453835
1'
#4454295
0'
#4454840
1'
#4455300
0'
#4455850
1'
#4456310
0'
#4456855
1'
#4457315
0'
#4457865
1'
#4458320
0'
#4458870
1'
#4459330
0'
#4459880
1'
#4460335
0'
#4460885
1'
#4462350
0'
#4462900
1'
#4464365
0'
#4464915
1'
#4466380
0'
#4466930
1'
#4468395
0'
#4468945
1'
#4470410
0'
#4470960
1'
#4472425
0'
#4472975
1'
#4474440
0'
#4474990
1'
#4476455
0'
#4477005
1'
#4537625
0'
#4542210
1'
#4546680
0'
#4547235
1'
#4547690
0'
#4548240
1'
#4548700
0'
#4549245
1'
#4549705
0'
#4550255
1'
#4550715
0'
#4551260
1'
#4552725
0'
#4553275
1'
#4553735
0'
#4554280
1'
#4554740
0'
#4555290
1'
#4555750
0'
#4556300
1'
#4556755
0'
#4557305
1'
#4557765
0'
#4558315
1'
#4558770
0'
#4559320
1'
#4559780
0'
#4560330
1'
#4560785
0'
#4561335
1'
#4561795
0'
#4562345
1'
#4562800
0'
#4563350
1'
#4563810
0'
#4564360
1'
#4568840
0'
#4569395
1'
#4569855
0'
#4570400
1'
#4570860
0'
#4571410
1'
#4571870
0'
#4572415
1'
#4572875
0'
#4573425
1'
#4573880
0'
#4574430
1'
#4574890
0'
#4575440
1'
#4575895
0'
#4576445
1'
#4576905
0'
#4577455
1'
#4577910
0'
#4578460
1'
#4578920
0'
#4579470
1'
#4579925
0'
#4580475
1'
#4580935
0'
#4581480
1'
#4582945
0'
#4583495
1'
#4584960
0'
#4585510
1'
#4586975
0'
#4587525
1'
#4588990
0'
#4589540
1'
#4591005
0'
#4591555
1'
#4593020
0'
#4593570
1'
#4595035
0'
#4595585
1'
#4597050
0'
#4597600
1'
#4658225
0'
#4662815
1'
#4667285
0'
#4667835
1'
#4668290
0'
#4668840
1'
#4669300
0'
#4669850
1'
#4670305
0'
#4670855
1'
