examples/log.vcd
$version Generated by VerilatedVcd $end
$timescale 1s $end
 $scope module TOP $end
  $var wire 1 # i_clk $end
  $var wire 8 $ i_raw_data [7:0] $end
  $var wire 1 % i_send $end
  $var wire 1 & o_bit $end
  $var wire 1 ' o_done $end
  $scope module fsm $end
   $var wire 1 # i_clk $end
   $var wire 8 $ i_raw_data [7:0] $end
   $var wire 1 % i_send $end
   $var wire 1 & o_bit $end
   $var wire 1 ' o_done $end
   $var wire 1 * a $end
   $var wire 1 + b $end
   $var wire 1 , c $end
   $var wire 1 - d $end
   $var wire 1 . e $end
   $var wire 1 / g $end
   $var wire 1 0 f $end
   $var wire 1 1 g1 $end
   $var wire 1 2 h $end
   $var wire 1 3 i $end
   $var wire 1 4 k $end
   $var wire 1 5 a2 $end
   $var wire 1 6 b2 $end
   $var wire 1 7 c2 $end
   $var wire 1 8 d2 $end
   $var wire 1 9 e2 $end
   $var wire 1 : g2 $end
   $var wire 1 ; f2 $end
   $var wire 1 < g12 $end
   $var wire 1 = h2 $end
   $var wire 1 > i2 $end
   $var wire 1 ? k2 $end
   $var wire 1 @ a4 $end
   $var wire 1 A b4 $end
   $var wire 1 B c4 $end
   $var wire 1 C d4 $end
   $var wire 1 D e4 $end
   $var wire 1 E g4 $end
   $var wire 1 F f4 $end
   $var wire 1 G g14 $end
   $var wire 1 H h4 $end
   $var wire 1 I i4 $end
   $var wire 1 J k4 $end
   $var wire 1 K a5 $end
   $var wire 1 L b5 $end
   $var wire 1 M c5 $end
   $var wire 1 N d5 $end
   $var wire 1 O e5 $end
   $var wire 1 P g5 $end
   $var wire 1 Q f5 $end
   $var wire 1 R g15 $end
   $var wire 1 S h5 $end
   $var wire 1 T i5 $end
   $var wire 1 U k5 $end
   $var wire 1 V a6 $end
   $var wire 1 W b6 $end
   $var wire 1 X c6 $end
   $var wire 1 Y d6 $end
   $var wire 1 Z e6 $end
   $var wire 1 [ g6 $end
   $var wire 1 \ f6 $end
   $var wire 1 ] g16 $end
   $var wire 1 ^ h6 $end
   $var wire 1 _ i6 $end
   $var wire 1 ` k6 $end
   $var wire 1 a a7 $end
   $var wire 1 b b7 $end
   $var wire 1 c c7 $end
   $var wire 1 d d7 $end
   $var wire 1 e e7 $end
   $var wire 1 f g7 $end
   $var wire 1 g f7 $end
   $var wire 1 h g17 $end
   $var wire 1 i h7 $end
   $var wire 1 j i7 $end
   $var wire 1 k k7 $end
   $var wire 1 l a8 $end
   $var wire 1 m b8 $end
   $var wire 1 n c8 $end
   $var wire 1 o d8 $end
   $var wire 1 p e8 $end
   $var wire 1 q g8 $end
   $var wire 1 r f8 $end
   $var wire 1 s g18 $end
   $var wire 1 t h8 $end
   $var wire 1 u i8 $end
   $var wire 1 v k8 $end
   $var wire 1 w a9 $end
   $var wire 1 x b9 $end
   $var wire 1 y c9 $end
   $var wire 1 z d9 $end
   $var wire 1 { e9 $end
   $var wire 1 | g9 $end
   $var wire 1 } f9 $end
   $var wire 1 ~ g19 $end
   $var wire 1 !! h9 $end
   $var wire 1 "! i9 $end
   $var wire 1 #! a10 $end
   $var wire 1 $! b10 $end
   $var wire 1 %! c10 $end
   $var wire 1 &! d10 $end
   $var wire 1 '! e10 $end
   $var wire 1 (! g10 $end
   $var wire 1 )! f10 $end
   $var wire 1 *! g110 $end
   $var wire 1 +! h10 $end
   $var wire 1 ,! i10 $end
   $var wire 1 -! k10 $end
   $var wire 1 .! a111 $end
   $var wire 1 /! b111 $end
   $var wire 1 0! c111 $end
   $var wire 1 1! d111 $end
   $var wire 1 2! e111 $end
   $var wire 1 3! g111 $end
   $var wire 1 4! f111 $end
   $var wire 1 5! g1111 $end
   $var wire 1 6! h111 $end
   $var wire 1 7! i111 $end
   $var wire 1 8! k111 $end
   $var wire 1 9! a222 $end
   $var wire 1 :! b222 $end
   $var wire 1 ;! c222 $end
   $var wire 1 <! d222 $end
   $var wire 1 =! e222 $end
   $var wire 1 >! g222 $end
   $var wire 1 ?! f222 $end
   $var wire 1 @! g1222 $end
   $var wire 1 A! h222 $end
   $var wire 1 B! i222 $end
   $var wire 1 C! k222 $end
   $var wire 1 D! a123456 $end
   $var wire 1 E! b123456 $end
   $var wire 1 F! c123456 $end
   $var wire 1 G! d123456 $end
   $var wire 1 H! e123456 $end
   $var wire 1 I! g123456 $end
   $var wire 1 J! f123456 $end
   $var wire 1 K! g1123456 $end
   $var wire 1 L! h123456 $end
   $var wire 1 M! i123456 $end
   $var wire 1 N! k123456 $end
   $var wire 1 O! a2123456 $end
   $var wire 1 P! b2123456 $end
   $var wire 1 Q! c2123456 $end
   $var wire 1 R! d2123456 $end
   $var wire 1 S! e2123456 $end
   $var wire 1 T! g2123456 $end
   $var wire 1 U! f2123456 $end
   $var wire 1 V! g12123456 $end
   $var wire 1 W! h2123456 $end
   $var wire 1 X! i2123456 $end
   $var wire 1 Y! k2123456 $end
   $var wire 1 Z! a4123456 $end
   $var wire 1 [! b4123456 $end
   $var wire 1 \! c4123456 $end
   $var wire 1 ]! d4123456 $end
   $var wire 1 ^! e4123456 $end
   $var wire 1 _! g4123456 $end
   $var wire 1 `! f4123456 $end
   $var wire 1 a! g14123456 $end
   $var wire 1 b! h4123456 $end
   $var wire 1 c! i4123456 $end
   $var wire 1 d! k4123456 $end
   $var wire 1 e! a5123456 $end
   $var wire 1 f! b5123456 $end
   $var wire 1 g! c5123456 $end
   $var wire 1 h! d5123456 $end
   $var wire 1 i! e5123456 $end
   $var wire 1 j! g5123456 $end
   $var wire 1 k! f5123456 $end
   $var wire 1 l! g15123456 $end
   $var wire 1 m! h5123456 $end
   $var wire 1 n! i5123456 $end
   $var wire 1 o! k5123456 $end
   $var wire 1 p! a6123456 $end
   $var wire 1 q! b6123456 $end
   $var wire 1 r! c6123456 $end
   $var wire 1 s! d6123456 $end
   $var wire 1 t! e6123456 $end
   $var wire 1 u! g6123456 $end
   $var wire 1 v! f6123456 $end
   $var wire 1 w! g16123456 $end
   $var wire 1 x! h6123456 $end
   $var wire 1 y! i6123456 $end
   $var wire 1 z! k6123456 $end
   $var wire 1 {! a7123456 $end
   $var wire 1 |! b7123456 $end
   $var wire 1 }! c7123456 $end
   $var wire 1 ~! d7123456 $end
   $var wire 1 !" e7123456 $end
   $var wire 1 "" g7123456 $end
   $var wire 1 #" f7123456 $end
   $var wire 1 $" g17123456 $end
   $var wire 1 %" h7123456 $end
   $var wire 1 &" i7123456 $end
   $var wire 1 '" k7123456 $end
   $var wire 1 (" a8123456 $end
   $var wire 1 )" b8123456 $end
   $var wire 1 *" c8123456 $end
   $var wire 1 +" d8123456 $end
   $var wire 1 ," e8123456 $end
   $var wire 1 -" g8123456 $end
   $var wire 1 ." f8123456 $end
   $var wire 1 /" g18123456 $end
   $var wire 1 0" h8123456 $end
   $var wire 1 1" i8123456 $end
   $var wire 1 2" k8123456 $end
   $var wire 1 3" a9123456 $end
   $var wire 1 4" b9123456 $end
   $var wire 1 5" c9123456 $end
   $var wire 1 6" d9123456 $end
   $var wire 1 7" e9123456 $end
   $var wire 1 8" g9123456 $end
   $var wire 1 9" f9123456 $end
   $var wire 1 :" g19123456 $end
   $var wire 1 ;" h9123456 $end
   $var wire 1 <" i9123456 $end
   $var wire 1 =" a10123456 $end
   $var wire 1 >" b10123456 $end
   $var wire 1 ?" c10123456 $end
   $var wire 1 @" d10123456 $end
   $var wire 1 A" e10123456 $end
   $var wire 1 B" g10123456 $end
   $var wire 1 C" f10123456 $end
   $var wire 1 D" g110123456 $end
   $var wire 1 E" h10123456 $end
   $var wire 1 F" i10123456 $end
   $var wire 1 G" k10123456 $end
   $var wire 1 H" a111123456 $end
   $var wire 1 I" b111123456 $end
   $var wire 1 J" c111123456 $end
   $var wire 1 K" d111123456 $end
   $var wire 1 L" e111123456 $end
   $var wire 1 M" g111123456 $end
   $var wire 1 N" f111123456 $end
   $var wire 1 O" g1111123456 $end
   $var wire 1 P" h111123456 $end
   $var wire 1 Q" i111123456 $end
   $var wire 1 R" k111123456 $end
   $var wire 1 S" a222123456 $end
   $var wire 1 T" b222123456 $end
   $var wire 1 U" c222123456 $end
   $var wire 1 V" d222123456 $end
   $var wire 1 W" e222123456 $end
   $var wire 1 X" g222123456 $end
   $var wire 1 Y" f222123456 $end
   $var wire 1 Z" g1222123456 $end
   $var wire 1 [" h222123456 $end
   $var wire 1 \" i222123456 $end
   $var wire 1 ]" k222123456 $end
   $var wire 1 ^" a2394723984729384 $end
   $var wire 1 _" b2394723984729384 $end
   $var wire 1 `" c2394723984729384 $end
   $var wire 1 a" d2394723984729384 $end
   $var wire 1 b" e2394723984729384 $end
   $var wire 1 c" g2394723984729384 $end
   $var wire 1 d" f2394723984729384 $end
   $var wire 1 e" g12394723984729384 $end
   $var wire 1 f" h2394723984729384 $end
   $var wire 1 g" i2394723984729384 $end
   $var wire 1 h" k2394723984729384 $end
   $var wire 1 i" a22394723984729384 $end
   $var wire 1 j" b22394723984729384 $end
   $var wire 1 k" c22394723984729384 $end
   $var wire 1 l" d22394723984729384 $end
   $var wire 1 m" e22394723984729384 $end
   $var wire 1 n" g22394723984729384 $end
   $var wire 1 o" f22394723984729384 $end
   $var wire 1 p" g122394723984729384 $end
   $var wire 1 q" h22394723984729384 $end
   $var wire 1 r" i22394723984729384 $end
   $var wire 1 s" k22394723984729384 $end
   $var wire 1 t" a42394723984729384 $end
   $var wire 1 u" b42394723984729384 $end
   $var wire 1 v" c42394723984729384 $end
   $var wire 1 w" d42394723984729384 $end
   $var wire 1 x" e42394723984729384 $end
   $var wire 1 y" g42394723984729384 $end
   $var wire 1 z" f42394723984729384 $end
   $var wire 1 {" g142394723984729384 $end
   $var wire 1 |" h42394723984729384 $end
   $var wire 1 }" i42394723984729384 $end
   $var wire 1 ~" k42394723984729384 $end
   $var wire 1 !# a52394723984729384 $end
   $var wire 1 "# b52394723984729384 $end
   $var wire 1 ## c52394723984729384 $end
   $var wire 1 $# d52394723984729384 $end
   $var wire 1 %# e52394723984729384 $end
   $var wire 1 &# g52394723984729384 $end
   $var wire 1 '# f52394723984729384 $end
   $var wire 1 (# g152394723984729384 $end
   $var wire 1 )# h52394723984729384 $end
   $var wire 1 *# i52394723984729384 $end
   $var wire 1 +# k52394723984729384 $end
   $var wire 1 ,# a62394723984729384 $end
   $var wire 1 -# b62394723984729384 $end
   $var wire 1 .# c62394723984729384 $end
   $var wire 1 /# d62394723984729384 $end
   $var wire 1 0# e62394723984729384 $end
   $var wire 1 1# g62394723984729384 $end
   $var wire 1 2# f62394723984729384 $end
   $var wire 1 3# g162394723984729384 $end
   $var wire 1 4# h62394723984729384 $end
   $var wire 1 5# i62394723984729384 $end
   $var wire 1 6# k62394723984729384 $end
   $var wire 1 7# a72394723984729384 $end
   $var wire 1 8# b72394723984729384 $end
   $var wire 1 9# c72394723984729384 $end
   $var wire 1 :# d72394723984729384 $end
   $var wire 1 ;# e72394723984729384 $end
   $var wire 1 <# g72394723984729384 $end
   $var wire 1 =# f72394723984729384 $end
   $var wire 1 ># g172394723984729384 $end
   $var wire 1 ?# h72394723984729384 $end
   $var wire 1 @# i72394723984729384 $end
   $var wire 1 A# k72394723984729384 $end
   $var wire 1 B# a82394723984729384 $end
   $var wire 1 C# b82394723984729384 $end
   $var wire 1 D# c82394723984729384 $end
   $var wire 1 E# d82394723984729384 $end
   $var wire 1 F# e82394723984729384 $end
   $var wire 1 G# g82394723984729384 $end
   $var wire 1 H# f82394723984729384 $end
   $var wire 1 I# g182394723984729384 $end
   $var wire 1 J# h82394723984729384 $end
   $var wire 1 K# i82394723984729384 $end
   $var wire 1 L# k82394723984729384 $end
   $var wire 1 M# a92394723984729384 $end
   $var wire 1 N# b92394723984729384 $end
   $var wire 1 O# c92394723984729384 $end
   $var wire 1 P# d92394723984729384 $end
   $var wire 1 Q# e92394723984729384 $end
   $var wire 1 R# g92394723984729384 $end
   $var wire 1 S# f92394723984729384 $end
   $var wire 1 T# g192394723984729384 $end
   $var wire 1 U# h92394723984729384 $end
   $var wire 1 V# i92394723984729384 $end
   $var wire 1 W# a102394723984729384 $end
   $var wire 1 X# b102394723984729384 $end
   $var wire 1 Y# c102394723984729384 $end
   $var wire 1 Z# d102394723984729384 $end
   $var wire 1 [# e102394723984729384 $end
   $var wire 1 \# g102394723984729384 $end
   $var wire 1 ]# f102394723984729384 $end
   $var wire 1 ^# g1102394723984729384 $end
   $var wire 1 _# h102394723984729384 $end
   $var wire 1 `# i102394723984729384 $end
   $var wire 1 a# k102394723984729384 $end
   $var wire 1 b# a1112394723984729384 $end
   $var wire 1 c# b1112394723984729384 $end
   $var wire 1 d# c1112394723984729384 $end
   $var wire 1 e# d1112394723984729384 $end
   $var wire 1 f# e1112394723984729384 $end
   $var wire 1 g# g1112394723984729384 $end
   $var wire 1 h# f1112394723984729384 $end
   $var wire 1 i# g11112394723984729384 $end
   $var wire 1 j# h1112394723984729384 $end
   $var wire 1 k# i1112394723984729384 $end
   $var wire 1 l# k1112394723984729384 $end
   $var wire 1 m# a2222394723984729384 $end
   $var wire 1 n# b2222394723984729384 $end
   $var wire 1 o# c2222394723984729384 $end
   $var wire 1 p# d2222394723984729384 $end
   $var wire 1 q# e2222394723984729384 $end
   $var wire 1 r# g2222394723984729384 $end
   $var wire 1 s# f2222394723984729384 $end
   $var wire 1 t# g12222394723984729384 $end
   $var wire 1 u# h2222394723984729384 $end
   $var wire 1 v# i2222394723984729384 $end
   $var wire 1 w# k2222394723984729384 $end
   $var wire 4 ( is_sending_counter [3:0] $end
   $var wire 10 ) fifo_data [9:0] $end
  $upscope $end
 $upscope $end
$enddefinitions $end


#0
1#
b00100000 $
0%
1&
0'
b0001 (
b1111111111 )
0*
0+
0,
0-
0.
0/
00
01
02
03
04
05
06
07
08
09
0:
0;
0<
0=
0>
0?
0@
0A
0B
0C
0D
0E
0F
0G
0H
0I
0J
0K
0L
0M
0N
0O
0P
0Q
0R
0S
0T
0U
0V
0W
0X
0Y
0Z
0[
0\
0]
0^
0_
0`
0a
0b
0c
0d
0e
0f
0g
0h
0i
0j
0k
0l
0m
0n
0o
0p
0q
0r
0s
0t
0u
0v
0w
0x
0y
0z
0{
0|
0}
0~
0!!
0"!
0#!
0$!
0%!
0&!
0'!
0(!
0)!
0*!
0+!
0,!
0-!
0.!
0/!
00!
01!
02!
03!
04!
05!
06!
07!
08!
09!
0:!
0;!
0<!
0=!
0>!
0?!
0@!
0A!
0B!
0C!
0D!
0E!
0F!
0G!
0H!
0I!
0J!
0K!
0L!
0M!
0N!
0O!
0P!
0Q!
0R!
0S!
0T!
0U!
0V!
0W!
0X!
0Y!
0Z!
0[!
0\!
0]!
0^!
0_!
0`!
0a!
0b!
0c!
0d!
0e!
0f!
0g!
0h!
0i!
0j!
0k!
0l!
0m!
0n!
0o!
0p!
0q!
0r!
0s!
0t!
0u!
0v!
0w!
0x!
0y!
0z!
0{!
0|!
0}!
0~!
0!"
0""
0#"
0$"
0%"
0&"
0'"
0("
0)"
0*"
0+"
0,"
0-"
0."
0/"
00"
01"
02"
03"
04"
05"
06"
07"
08"
09"
0:"
0;"
0<"
0="
0>"
0?"
0@"
0A"
0B"
0C"
0D"
0E"
0F"
0G"
0H"
0I"
0J"
0K"
0L"
0M"
0N"
0O"
0P"
0Q"
0R"
0S"
0T"
0U"
0V"
0W"
0X"
0Y"
0Z"
0["
0\"
0]"
0^"
0_"
0`"
0a"
0b"
0c"
0d"
0e"
0f"
0g"
0h"
0i"
0j"
0k"
0l"
0m"
0n"
0o"
0p"
0q"
0r"
0s"
0t"
0u"
0v"
0w"
0x"
0y"
0z"
0{"
0|"
0}"
0~"
0!#
0"#
0##
0$#
0%#
0&#
0'#
0(#
0)#
0*#
0+#
0,#
0-#
0.#
0/#
00#
01#
02#
03#
04#
05#
06#
07#
08#
09#
0:#
0;#
0<#
0=#
0>#
0?#
0@#
0A#
0B#
0C#
0D#
0E#
0F#
0G#
0H#
0I#
0J#
0K#
0L#
0M#
0N#
0O#
0P#
0Q#
0R#
0S#
0T#
0U#
0V#
0W#
0X#
0Y#
0Z#
0[#
0\#
0]#
0^#
0_#
0`#
0a#
0b#
0c#
0d#
0e#
0f#
0g#
0h#
0i#
0j#
0k#
0l#
0m#
0n#
0o#
0p#
0q#
0r#
0s#
0t#
0u#
0v#
0w#
#1
0#
#2
1#
b0010 (
#3
0#
#4
1#
b0011 (
#5
0#
#6
1#
b0100 (
#7
0#
#8
1#
b0101 (
#9
0#
#10
1#
b0110 (
#11
0#
#12
1#
b0111 (
#13
0#
#14
1#
b1000 (
#15
0#
#16
1#
1'
b1001 (
#17
0#
#18
1#
b11111111 $
1%
0&
0'
b0000 (
b0111111111 )
#19
0#
#20
1#
0%
1&
b0001 (
b1111111111 )
#21
0#
#22
1#
b0010 (
#23
0#
#24
1#
b0011 (
#25
0#
#26
1#
b0100 (
#27
0#
#28
1#
b0101 (
#29
0#
#30
1#
b0110 (
#31
0#
#32
1#
b0111 (
#33
0#
#34
1#
b1000 (
#35
0#
#36
1#
1'
b1001 (
#37
0#
#38
1#
b10000000 $
1%
0&
0'
b0000 (
b0100000001 )
#39
0#
#40
1#
0%
1&
b0001 (
b1000000011 )
#41
0#
#42
1#
0&
b0010 (
b0000000111 )
#43
0#
#44
1#
b0011 (
b0000001111 )
#45
0#
#46
1#
b0100 (
b0000011111 )
#47
0#
#48
1#
b0101 (
b0000111111 )
#49
0#
#50
1#
b0110 (
b0001111111 )
#51
0#
#52
1#
b0111 (
b0011111111 )
#53
0#
#54
1#
b1000 (
b0111111111 )
#55
0#
#56
1#
1&
1'
b1001 (
b1111111111 )
#57
0#
#58
1#
b01000000 $
1%
0&
0'
b0000 (
b0010000001 )
#59
0#
#60
1#
0%
b0001 (
b0100000011 )
#61
0#
#62
1#
1&
b0010 (
b1000000111 )
#63
0#
#64
1#
0&
b0011 (
b0000001111 )
#65
0#
#66
1#
b0100 (
b0000011111 )
#67
0#
#68
1#
b0101 (
b0000111111 )
#69
0#
#70
1#
b0110 (
b0001111111 )
#71
0#
#72
1#
b0111 (
b0011111111 )
#73
0#
#74
1#
b1000 (
b0111111111 )
#75
0#
#76
1#
1&
1'
b1001 (
b1111111111 )
#77
0#
#78
1#
b00100000 $
1%
0&
0'
b0000 (
b0001000001 )
#79
0#
#80
1#
0%
b0001 (
b0010000011 )
#81
0#
#82
1#
b0010 (
b0100000111 )
#83
0#
#84
1#
1&
b0011 (
b1000001111 )
#85
0#
#86
1#
0&
b0100 (
b0000011111 )
#87
0#
#88
1#
b0101 (
b0000111111 )
#89
0#
#90
1#
b0110 (
b0001111111 )
#91
0#
#92
1#
b0111 (
b0011111111 )
#93
0#
#94
1#
b1000 (
b0111111111 )
#95
0#
#96
1#
1&
1'
b1001 (
b1111111111 )
#97
0#
#98
1#
b00010000 $
1%
0&
0'
b0000 (
b0000100001 )
#99
0#
#100
1#
0%
b0001 (
b0001000011 )
#101
0#
#102
1#
b0010 (
b0010000111 )
#103
0#
#104
1#
b0011 (
b0100001111 )
#105
0#
#106
1#
1&
b0100 (
b1000011111 )
#107
0#
#108
1#
0&
b0101 (
b0000111111 )
#109
0#
#110
1#
b0110 (
b0001111111 )
#111
0#
#112
1#
b0111 (
b0011111111 )
#113
0#
#114
1#
b1000 (
b0111111111 )
#115
0#
#116
1#
1&
1'
b1001 (
b1111111111 )
#117
0#
#118
1#
b00001000 $
1%
0&
0'
b0000 (
b0000010001 )
#119
0#
#120
1#
0%
b0001 (
b0000100011 )
#121
0#
#122
1#
b0010 (
b0001000111 )
#123
0#
#124
1#
b0011 (
b0010001111 )
#125
0#
#126
1#
b0100 (
b0100011111 )
#127
0#
#128
1#
1&
b0101 (
b1000111111 )
#129
0#
#130
1#
0&
b0110 (
b0001111111 )
#131
0#
#132
1#
b0111 (
b0011111111 )
#133
0#
#134
1#
b1000 (
b0111111111 )
#135
0#
#136
1#
1&
1'
b1001 (
b1111111111 )
#137
0#
#138
1#
b00000100 $
1%
0&
0'
b0000 (
b0000001001 )
#139
0#
#140
1#
0%
b0001 (
b0000010011 )
#141
0#
#142
1#
b0010 (
b0000100111 )
#143
0#
#144
1#
b0011 (
b0001001111 )
#145
0#
#146
1#
b0100 (
b0010011111 )
#147
0#
#148
1#
b0101 (
b0100111111 )
#149
0#
#150
1#
1&
b0110 (
b1001111111 )
#151
0#
#152
1#
0&
b0111 (
b0011111111 )
#153
0#
#154
1#
b1000 (
b0111111111 )
#155
0#
#156
1#
1&
1'
b1001 (
b1111111111 )
#157
0#
#158
1#
b00000010 $
1%
0&
0'
b0000 (
b0000000101 )
#159
0#
#160
1#
0%
b0001 (
b0000001011 )
#161
0#
#162
1#
b0010 (
b0000010111 )
#163
0#
#164
1#
b0011 (
b0000101111 )
#165
0#
#166
1#
b0100 (
b0001011111 )
#167
0#
#168
1#
b0101 (
b0010111111 )
#169
0#
#170
1#
b0110 (
b0101111111 )
#171
0#
#172
1#
1&
b0111 (
b1011111111 )
#173
0#
#174
1#
0&
b1000 (
b0111111111 )
#175
0#
#176
1#
1&
1'
b1001 (
b1111111111 )
#177
0#
#178
1#
b00000001 $
1%
0&
0'
b0000 (
b0000000011 )
#179
0#
#180
1#
0%
b0001 (
b0000000111 )
#181
0#
#182
1#
b0010 (
b0000001111 )
#183
0#
#184
1#
b0011 (
b0000011111 )
#185
0#
#186
1#
b0100 (
b0000111111 )
#187
0#
#188
1#
b0101 (
b0001111111 )
#189
0#
#190
1#
b0110 (
b0011111111 )
#191
0#
#192
1#
b0111 (
b0111111111 )
#193
0#
#194
1#
1&
b1000 (
b1111111111 )
#195
0#
#196
1#
1'
b1001 (
#197
0#
#198
1#
b00000000 $
1%
0&
0'
b0000 (
b0000000001 )
#199
0#
#200
1#
0%
b0001 (
b0000000011 )
#201
0#
#202
1#
b0010 (
b0000000111 )
#203
0#
#204
1#
b0011 (
b0000001111 )
#205
0#
#206
1#
b0100 (
b0000011111 )
#207
0#
#208
1#
b0101 (
b0000111111 )
#209
0#
#210
1#
b0110 (
b0001111111 )
#211
0#
#212
1#
b0111 (
b0011111111 )
#213
0#
#214
1#
b1000 (
b0111111111 )
#215
0#
#216
1#
1&
1'
b1001 (
b1111111111 )
#217
0#
#218
1#
0'
b1010 (
