examples/mine_second.vcd
$date 2024-12-03 18:25:00 $end 
$version Wavy XM_saved $end 
$timescale 1 us $end 
$scope module RPIPico $end
$var wire 1 # GP1 $end
$var wire 1 $ GP2 $end
$var wire 1 % GP3 $end
$var wire 1 & GP4 $end
$var wire 1 ' GP5 $end
$var wire 1 * GP6 $end
$var wire 1 < GP7 $end
$var wire 1 + GP8 $end
$upscope $end
$enddefinitions $end
#0
'1
#221575
'0
#617535
'1
#866095
'0
#1162755
'1
#1349195
'0
#1450200
'1
#1591425
'0
#1651220
'1
#1771815
'0
#1772275
'1
#1772625
'0
#1838540
'1
#1944970
'0
#2009845
'1
#2118810
'0
#2193115
'1
#2311550
'0
#2393890
'1
#2505080
'0
#2509315
'1
#2509360
'0
#2561080
'1
#2673475
'0
#2736550
'1
#2866985
'0
#2944205
'1
#3037575
'0
#3091835
'1
#3176155
'0
#3251495
'1
#4648480
'0
#4956295
'1
#5169880
'0
