examples/the_imperial_march.vcd
$date 2024-12-03 18:41:13 $end 
$version Wavy XM_saved $end 
$timescale 1 us $end 
$scope module RPIPico $end
$var wire 1 # GP1 $end
$var wire 1 $ GP2 $end
$var wire 1 % GP3 $end
$var wire 1 & GP4 $end
$var wire 1 ' GP5 $end
$var wire 1 * GP6 $end
$var wire 1 < GP7 $end
$var wire 1 + GP8 $end
$upscope $end
$enddefinitions $end
#0
1'
#123530
0'
#496320
1'
#638795
0'
#955700
1'
#1118725
0'
#1439950
1'
#1575210
0'
#1776700
1'
#1776735
0'
#1776740
1'
#1842870
0'
#1914680
1'
#2009090
0'
#2379880
1'
#2526160
0'
#2703955
1'
#2766245
0'
#2853635
1'
#2933560
0'
#3782315
1'
#3782345
0'
#3782360
1'
#3889510
0'
#4253885
1'
#4393055
0'
#4714015
1'
#4826625
0'
#5210875
1'
#5293305
0'
#5529385
1'
#5589940
0'
#5666385
1'
#5734905
0'
#6127920
1'
#6203940
0'
#6204260
1'
#6205275
0'
#6205335
1'
#6205425
0'
#6480805
1'
#6540135
0'
#6629145
1'
#6695740
0'
